{
    "user": "copa",
    "password": "copa",
    "server_ip": "10.0.2.11",
    "pools": [
        {
            "label": "Server1",
            "ip": "10.0.2.9"
        },
        {
            "label": "Server2",
            "ip": "10.0.2.10"
        }
    ]
}